2010.10.14 10:20 B C:\GreenLandFoundation\build\web\cms\Gheader.jsp --> ftp.demo.furtuengineering.com /www Gheader.jsp
2010.10.14 10:21 B C:\GreenLandFoundation\build\web\cms\Gheader.jsp --> ftp.demo.furtuengineering.com /www/cms Gheader.jsp
2010.10.14 10:21 B C:\GreenLandFoundation\build\web\cms\home.jsp --> ftp.demo.furtuengineering.com /www/cms home.jsp
2010.10.14 10:26 B C:\GreenLandFoundation\build\web\cms\home.jsp --> ftp.demo.furtuengineering.com /www/cms home.jsp
2010.10.14 15:06 B C:\GreenLandFoundation\build\web\cms\validation.jsp --> ftp.demo.furtuengineering.com /www/cms validation.jsp
2010.10.14 15:14 B C:\GreenLandFoundation\build\web\cms\validation.jsp --> ftp.demo.furtuengineering.com /www/cms validation.jsp
2010.10.14 15:16 B C:\GreenLandFoundation\build\web\cms\login.jsp --> ftp.demo.furtuengineering.com /www/cms login.jsp
2010.10.14 15:21 B C:\GreenLandFoundation\build\web\cms\validation.jsp --> ftp.demo.furtuengineering.com /www/cms validation.jsp
2010.10.14 15:22 B C:\GreenLandFoundation\build\web\cms\validation.jsp --> ftp.demo.furtuengineering.com /www/cms validation.jsp
2010.10.14 15:26 B C:\GreenLandFoundation\build\web\cms\validation.jsp --> ftp.demo.furtuengineering.com /www/cms validation.jsp
2010.10.14 15:28 B C:\GreenLandFoundation\build\web\cms\validation.jsp --> ftp.demo.furtuengineering.com /www/cms validation.jsp
2010.10.14 15:48 B C:\GreenLandFoundation\build\web\cms\validation.jsp --> ftp.demo.furtuengineering.com /www/cms validation.jsp
2010.10.14 16:13 B C:\GreenLandFoundation\build\web\cms\insertnews.jsp --> ftp.demo.furtuengineering.com /www/cms insertnews.jsp
2010.10.14 16:17 B C:\GreenLandFoundation\build\web\cms\insertnews.jsp --> ftp.demo.furtuengineering.com /www/cms insertnews.jsp
2010.10.14 16:17 B C:\GreenLandFoundation\build\web\cms\connection.jsp --> ftp.demo.furtuengineering.com /www/cms connection.jsp
2010.10.14 16:33 B C:\GreenLandFoundation\build\web\cms\insertnews.jsp --> ftp.demo.furtuengineering.com / insertnews.jsp
2010.10.14 16:34 B C:\GreenLandFoundation\build\web\cms\insertnews.jsp --> ftp.demo.furtuengineering.com /www/cms insertnews.jsp
2010.10.14 16:34 B C:\GreenLandFoundation\build\web\cms\insertnews.jsp --> ftp.demo.furtuengineering.com /www/cms insertnews.jsp
